{
    "$schema": "https://json-schema.org/schema#",

    "type": "object",
    "properties": {
        "global": {"type": "string"},
        "tree": {
            "type": "string",
            "items": {
                "type": "object",
                "properties": {
                    "name" : {
                        "type": "string"
                    },
                    "type": {
                        "type": "string",
                        "enum": ["VIEW", "FOLDER"]
                    },
                    "child": {
                        "type": "object",
                        "properties": {
                            "name": {
                                "type": "string"
                            },
                            "type" : {"type" :  "string" },
                            "template" : {"type" :  "string"},
                            "replace" : {"type":  "object",
                                "properties" :  {"SUBVIEW_REGEX": {"type" : "string"}}
                            }
                        }
                    }
                }
            }
        },
        "jobs": {
            "type" : "array",
            "items" : {
                "type": "object",
                "properties": {
                    "name":  {
                        "type": "string"
                    },
                    "template": {
                        "type": "string"
                    },
                    "type" :  {
                        "type": "string"
                    },
                    "replace" : {
                        "type": "object",
                        "properties": {
                            "REGEX": {
                                "type": "string"
                            }
                        }
                    }
                }
            }
        }
    },
    "required": ["jobs","tree","global"]
}